[
    {
        "shortName":"E2I",
        "fullName" : "Électronique et informatique industrielle",
        "imgPath" : "E2I.png",
        "description" : [
            "Praesent dignissim feugiat mauris a ornare. Interdum et malesuada fames ac ante ipsum primis in faucibus. Cras at dignissim neque, id rutrum nisi. Etiam efficitur felis non orci tempus, ut iaculis felis cursus. Duis sed mi ut tellus sagittis imperdiet. Maecenas ornare bibendum vestibulum. Phasellus ut viverra nisl, id cursus ex. Nunc volutpat ipsum et ipsum dictum, eu dignissim lacus suscipit. Vestibulum risus turpis, ornare a aliquet nec, maximus quis magna. Suspendisse volutpat nunc dui, rhoncus imperdiet augue pellentesque at. Integer quis ex at velit elementum eleifend. Proin cursus mollis tortor, non commodo diam ultricies condimentum. Phasellus et libero eu purus ultrices lacinia. Donec ut lectus auctor, tincidunt sem fermentum, consectetur turpis. Vestibulum ac lectus at diam rutrum vulputate eget at elit. Aenean feugiat, risus vitae mattis scelerisque, elit ex ullamcorper velit, at ornare ex nunc in augue. Curabitur tempus, elit nec ornare porta, mi lacus porta lacus, ornare euismod nibh velit in justo. Pellentesque efficitur risus ac neque congue, et mattis lacus viverra. Pellentesque habitant morbi tristique senectus et netus et malesuada fames ac turpis egestas. Ut ullamcorper mauris et turpis laoreet lacinia. Duis vehicula quis leo tincidunt malesuada. Proin in lorem non orci rutrum porta vitae nec velit. Suspendisse luctus ultrices turpis, sed egestas tellus convallis et. Etiam elementum, justo sit amet facilisis efficitur, velit dui laoreet orci, ultrices dictum neque lectus sed arcu. Praesent ac quam luctus, malesuada enim quis, consequat nisl. Proin cursus blandit est. Vestibulum non quam blandit, pulvinar ipsum sit amet, molestie ipsum. Mauris mollis sit amet risus ac imperdiet."
        ]
    },
    {
        "shortName":"GGC",
        "fullName" : "Géotechnique et génie civil",
        "imgPath" : "GGC.png",
        "description" : [
            "Praesent dignissim feugiat mauris a ornare. Interdum et malesuada fames ac ante ipsum primis in faucibus. Cras at dignissim neque, id rutrum nisi. Etiam efficitur felis non orci tempus, ut iaculis felis cursus. Duis sed mi ut tellus sagittis imperdiet. Maecenas ornare bibendum vestibulum. Phasellus ut viverra nisl, id cursus ex. Nunc volutpat ipsum et ipsum dictum, eu dignissim lacus suscipit. Vestibulum risus turpis, ornare a aliquet nec, maximus quis magna. Suspendisse volutpat nunc dui, rhoncus imperdiet augue pellentesque at. Integer quis ex at velit elementum eleifend. Proin cursus mollis tortor, non commodo diam ultricies condimentum. Phasellus et libero eu purus ultrices lacinia. Donec ut lectus auctor, tincidunt sem fermentum, consectetur turpis. Vestibulum ac lectus at diam rutrum vulputate eget at elit. Aenean feugiat, risus vitae mattis scelerisque, elit ex ullamcorper velit, at ornare ex nunc in augue. Curabitur tempus, elit nec ornare porta, mi lacus porta lacus, ornare euismod nibh velit in justo. Pellentesque efficitur risus ac neque congue, et mattis lacus viverra. Pellentesque habitant morbi tristique senectus et netus et malesuada fames ac turpis egestas. Ut ullamcorper mauris et turpis laoreet lacinia. Duis vehicula quis leo tincidunt malesuada. Proin in lorem non orci rutrum porta vitae nec velit. Suspendisse luctus ultrices turpis, sed egestas tellus convallis et. Etiam elementum, justo sit amet facilisis efficitur, velit dui laoreet orci, ultrices dictum neque lectus sed arcu. Praesent ac quam luctus, malesuada enim quis, consequat nisl. Proin cursus blandit est. Vestibulum non quam blandit, pulvinar ipsum sit amet, molestie ipsum. Mauris mollis sit amet risus ac imperdiet."
        ]
    },
    {
        "shortName":"IESE",
        "fullName" : "Informatique, électronique et systèmes embarqués",
        "imgPath" : "IESE.png",
        "description" : [
            "Praesent dignissim feugiat mauris a ornare. Interdum et malesuada fames ac ante ipsum primis in faucibus. Cras at dignissim neque, id rutrum nisi. Etiam efficitur felis non orci tempus, ut iaculis felis cursus. Duis sed mi ut tellus sagittis imperdiet. Maecenas ornare bibendum vestibulum. Phasellus ut viverra nisl, id cursus ex. Nunc volutpat ipsum et ipsum dictum, eu dignissim lacus suscipit. Vestibulum risus turpis, ornare a aliquet nec, maximus quis magna. Suspendisse volutpat nunc dui, rhoncus imperdiet augue pellentesque at. Integer quis ex at velit elementum eleifend. Proin cursus mollis tortor, non commodo diam ultricies condimentum. Phasellus et libero eu purus ultrices lacinia. Donec ut lectus auctor, tincidunt sem fermentum, consectetur turpis. Vestibulum ac lectus at diam rutrum vulputate eget at elit. Aenean feugiat, risus vitae mattis scelerisque, elit ex ullamcorper velit, at ornare ex nunc in augue. Curabitur tempus, elit nec ornare porta, mi lacus porta lacus, ornare euismod nibh velit in justo. Pellentesque efficitur risus ac neque congue, et mattis lacus viverra. Pellentesque habitant morbi tristique senectus et netus et malesuada fames ac turpis egestas. Ut ullamcorper mauris et turpis laoreet lacinia. Duis vehicula quis leo tincidunt malesuada. Proin in lorem non orci rutrum porta vitae nec velit. Suspendisse luctus ultrices turpis, sed egestas tellus convallis et. Etiam elementum, justo sit amet facilisis efficitur, velit dui laoreet orci, ultrices dictum neque lectus sed arcu. Praesent ac quam luctus, malesuada enim quis, consequat nisl. Proin cursus blandit est. Vestibulum non quam blandit, pulvinar ipsum sit amet, molestie ipsum. Mauris mollis sit amet risus ac imperdiet."
        ]
    },
    {
        "shortName":"INFO",
        "fullName" : "Informatique",
        "imgPath" : "INFO.png",
        "description" : [
            "Praesent dignissim feugiat mauris a ornare. Interdum et malesuada fames ac ante ipsum primis in faucibus. Cras at dignissim neque, id rutrum nisi. Etiam efficitur felis non orci tempus, ut iaculis felis cursus. Duis sed mi ut tellus sagittis imperdiet. Maecenas ornare bibendum vestibulum. Phasellus ut viverra nisl, id cursus ex. Nunc volutpat ipsum et ipsum dictum, eu dignissim lacus suscipit. Vestibulum risus turpis, ornare a aliquet nec, maximus quis magna. Suspendisse volutpat nunc dui, rhoncus imperdiet augue pellentesque at. Integer quis ex at velit elementum eleifend. Proin cursus mollis tortor, non commodo diam ultricies condimentum. Phasellus et libero eu purus ultrices lacinia. Donec ut lectus auctor, tincidunt sem fermentum, consectetur turpis. Vestibulum ac lectus at diam rutrum vulputate eget at elit. Aenean feugiat, risus vitae mattis scelerisque, elit ex ullamcorper velit, at ornare ex nunc in augue. Curabitur tempus, elit nec ornare porta, mi lacus porta lacus, ornare euismod nibh velit in justo. Pellentesque efficitur risus ac neque congue, et mattis lacus viverra. Pellentesque habitant morbi tristique senectus et netus et malesuada fames ac turpis egestas. Ut ullamcorper mauris et turpis laoreet lacinia. Duis vehicula quis leo tincidunt malesuada. Proin in lorem non orci rutrum porta vitae nec velit. Suspendisse luctus ultrices turpis, sed egestas tellus convallis et. Etiam elementum, justo sit amet facilisis efficitur, velit dui laoreet orci, ultrices dictum neque lectus sed arcu. Praesent ac quam luctus, malesuada enim quis, consequat nisl. Proin cursus blandit est. Vestibulum non quam blandit, pulvinar ipsum sit amet, molestie ipsum. Mauris mollis sit amet risus ac imperdiet."
        ]
    },
    {
        "shortName":"MAT",
        "fullName" : "Matériaux",
        "imgPath" : "MAT.png",
        "description" : [
            "Praesent dignissim feugiat mauris a ornare. Interdum et malesuada fames ac ante ipsum primis in faucibus. Cras at dignissim neque, id rutrum nisi. Etiam efficitur felis non orci tempus, ut iaculis felis cursus. Duis sed mi ut tellus sagittis imperdiet. Maecenas ornare bibendum vestibulum. Phasellus ut viverra nisl, id cursus ex. Nunc volutpat ipsum et ipsum dictum, eu dignissim lacus suscipit. Vestibulum risus turpis, ornare a aliquet nec, maximus quis magna. Suspendisse volutpat nunc dui, rhoncus imperdiet augue pellentesque at. Integer quis ex at velit elementum eleifend. Proin cursus mollis tortor, non commodo diam ultricies condimentum. Phasellus et libero eu purus ultrices lacinia. Donec ut lectus auctor, tincidunt sem fermentum, consectetur turpis. Vestibulum ac lectus at diam rutrum vulputate eget at elit. Aenean feugiat, risus vitae mattis scelerisque, elit ex ullamcorper velit, at ornare ex nunc in augue. Curabitur tempus, elit nec ornare porta, mi lacus porta lacus, ornare euismod nibh velit in justo. Pellentesque efficitur risus ac neque congue, et mattis lacus viverra. Pellentesque habitant morbi tristique senectus et netus et malesuada fames ac turpis egestas. Ut ullamcorper mauris et turpis laoreet lacinia. Duis vehicula quis leo tincidunt malesuada. Proin in lorem non orci rutrum porta vitae nec velit. Suspendisse luctus ultrices turpis, sed egestas tellus convallis et. Etiam elementum, justo sit amet facilisis efficitur, velit dui laoreet orci, ultrices dictum neque lectus sed arcu. Praesent ac quam luctus, malesuada enim quis, consequat nisl. Proin cursus blandit est. Vestibulum non quam blandit, pulvinar ipsum sit amet, molestie ipsum. Mauris mollis sit amet risus ac imperdiet."
        ]
    },
    {
        "shortName":"PRI",
        "fullName" : "Prévention des risques",
        "imgPath" : "PRI.png",
        "description" : [
            "Praesent dignissim feugiat mauris a ornare. Interdum et malesuada fames ac ante ipsum primis in faucibus. Cras at dignissim neque, id rutrum nisi. Etiam efficitur felis non orci tempus, ut iaculis felis cursus. Duis sed mi ut tellus sagittis imperdiet. Maecenas ornare bibendum vestibulum. Phasellus ut viverra nisl, id cursus ex. Nunc volutpat ipsum et ipsum dictum, eu dignissim lacus suscipit. Vestibulum risus turpis, ornare a aliquet nec, maximus quis magna. Suspendisse volutpat nunc dui, rhoncus imperdiet augue pellentesque at. Integer quis ex at velit elementum eleifend. Proin cursus mollis tortor, non commodo diam ultricies condimentum. Phasellus et libero eu purus ultrices lacinia. Donec ut lectus auctor, tincidunt sem fermentum, consectetur turpis. Vestibulum ac lectus at diam rutrum vulputate eget at elit. Aenean feugiat, risus vitae mattis scelerisque, elit ex ullamcorper velit, at ornare ex nunc in augue. Curabitur tempus, elit nec ornare porta, mi lacus porta lacus, ornare euismod nibh velit in justo. Pellentesque efficitur risus ac neque congue, et mattis lacus viverra. Pellentesque habitant morbi tristique senectus et netus et malesuada fames ac turpis egestas. Ut ullamcorper mauris et turpis laoreet lacinia. Duis vehicula quis leo tincidunt malesuada. Proin in lorem non orci rutrum porta vitae nec velit. Suspendisse luctus ultrices turpis, sed egestas tellus convallis et. Etiam elementum, justo sit amet facilisis efficitur, velit dui laoreet orci, ultrices dictum neque lectus sed arcu. Praesent ac quam luctus, malesuada enim quis, consequat nisl. Proin cursus blandit est. Vestibulum non quam blandit, pulvinar ipsum sit amet, molestie ipsum. Mauris mollis sit amet risus ac imperdiet."
        ]
    },
    {
        "shortName":"TIS",
        "fullName" : "Technologies de l'information et de la santé",
        "imgPath" : "TIS.png",
        "description" : [
            "Praesent dignissim feugiat mauris a ornare. Interdum et malesuada fames ac ante ipsum primis in faucibus. Cras at dignissim neque, id rutrum nisi. Etiam efficitur felis non orci tempus, ut iaculis felis cursus. Duis sed mi ut tellus sagittis imperdiet. Maecenas ornare bibendum vestibulum. Phasellus ut viverra nisl, id cursus ex. Nunc volutpat ipsum et ipsum dictum, eu dignissim lacus suscipit. Vestibulum risus turpis, ornare a aliquet nec, maximus quis magna. Suspendisse volutpat nunc dui, rhoncus imperdiet augue pellentesque at. Integer quis ex at velit elementum eleifend. Proin cursus mollis tortor, non commodo diam ultricies condimentum. Phasellus et libero eu purus ultrices lacinia. Donec ut lectus auctor, tincidunt sem fermentum, consectetur turpis. Vestibulum ac lectus at diam rutrum vulputate eget at elit. Aenean feugiat, risus vitae mattis scelerisque, elit ex ullamcorper velit, at ornare ex nunc in augue. Curabitur tempus, elit nec ornare porta, mi lacus porta lacus, ornare euismod nibh velit in justo. Pellentesque efficitur risus ac neque congue, et mattis lacus viverra. Pellentesque habitant morbi tristique senectus et netus et malesuada fames ac turpis egestas. Ut ullamcorper mauris et turpis laoreet lacinia. Duis vehicula quis leo tincidunt malesuada. Proin in lorem non orci rutrum porta vitae nec velit. Suspendisse luctus ultrices turpis, sed egestas tellus convallis et. Etiam elementum, justo sit amet facilisis efficitur, velit dui laoreet orci, ultrices dictum neque lectus sed arcu. Praesent ac quam luctus, malesuada enim quis, consequat nisl. Proin cursus blandit est. Vestibulum non quam blandit, pulvinar ipsum sit amet, molestie ipsum. Mauris mollis sit amet risus ac imperdiet."
        ]
    }
]