[
    {
      "name": "Léo",
      "branch" : "All",
      "connection": "Connexion via identifiants Agalan",
      "link": "https://leo.univ-grenoble-alpes.fr/",
      "description": "",
      "access": "boîte mail UGA, ADE (emploie du temps fourni par l'UGA, SUAPS)"
    },
    {
      "name": "Chamilo",
      "branch" : "All",
      "connection": "Connexion via identifiants Agalan",
      "link": "https://chamilo.univ-grenoble-alpes.fr",
      "description": "",
      "access": "cours de Tronc Commun (anglais, droit/éco, gestion, ..)"
    },
    {
      "name": "Moodle",
      "branch" : "TIS",
      "connection": "Connexion via identifiants Agalan",
      "link": "https://im2ag-moodle.e.ujf-grenoble.fr/course/index.php?categoryid=50",
      "description": "",
      "access": "cours de filières TIS"
    },
    {
        "name": "Moodle",
        "branch" : "Info",
        "connection": "Connexion via identifiants Agalan",
        "link": "https://im2ag-moodle.e.ujf-grenoble.fr/course/index.php?categoryid=20",
        "description": "",
        "access": "cours de filières INFO"
    }
]